Assignment Multiple Logistic Regression
…
Influential observations

infl <- influence.measures(final_model)

We use augment() to generate the residuals values

residual_value <- augment(final_model)
residual_value

# A tibble: 303 × 14
   CHD     age gender chest_pain_type  blood_pressure  chol resting_ecg         
   <fct> <dbl> <fct>  <fct>                     <dbl> <dbl> <fct>               
 1 yes      63 female asymptomatic                145   233 normal              
 2 yes      37 female non-anginal pain            130   250 ST-T waze abnormali…
 3 yes      41 male   atypical angina             130   204 normal              
 4 yes      56 female atypical angina             120   236 ST-T waze abnormali…
 5 yes      57 male   typical angina              120   354 ST-T waze abnormali…
 6 yes      57 female typical angina              140   192 ST-T waze abnormali…
 7 yes      56 male   atypical angina             140   294 normal              
 8 yes      44 female atypical angina             120   263 ST-T waze abnormali…
 9 yes      52 female non-anginal pain            172   199 ST-T waze abnormali…
10 yes      57 female non-anginal pain            150   168 ST-T waze abnormali…
# ℹ 293 more rows
# ℹ 7 more variables: exercise_induced_angina <fct>, .fitted <dbl>,
#   .resid <dbl>, .hat <dbl>, .sigma <dbl>, .cooksd <dbl>, .std.resid <dbl>
…
